…
### `sens_unif`

-   Draw parameters from uniform distribution based on current parameter values
-   `lower` and `upper` scale the parameter value to provide `a` and `b` arguments to `runif`

``` r
out <- 
  mod %>% 
  select(CL,VC,KA1) %>%
  sens_unif(.n=10, lower=0.2, upper=3)

out
```

    . # A tibble: 1,930 x 8
    .       ID  time    CP    CL    VC   KA1 name         value
    .    <dbl> <dbl> <dbl> <dbl> <dbl> <dbl> <chr>        <dbl>
    .  1    1. 0.     0.    2.26  10.0 0.548 multivariate    1.
    .  2    1. 0.250  1.24  2.26  10.0 0.548 multivariate    1.
    .  3    1. 0.500  2.26  2.26  10.0 0.548 multivariate    1.
    .  4    1. 0.750  3.08  2.26  10.0 0.548 multivariate    1.
    .  5    1. 1.00   3.74  2.26  10.0 0.548 multivariate    1.
    .  6    1. 1.25   4.25  2.26  10.0 0.548 multivariate    1.
    .  7    1. 1.50   4.64  2.26  10.0 0.548 multivariate    1.
    .  8    1. 1.75   4.93  2.26  10.0 0.548 multivariate    1.
    .  9    1. 2.00   5.14  2.26  10.0 0.548 multivariate    1.
    . 10    1. 2.25   5.27  2.26  10.0 0.548 multivariate    1.
    . # ... with 1,920 more rows
…
    .  Formulae                 
    .    CL ~ runif(1, 3.5)     
    .    VC[0, ] ~ rnorm(50, 25)

``` r
out <- mod %>% sens_covset(cov1) 
```

``` r
out
```

    . # A tibble: 19,300 x 7
    .       ID  time    CP    CL    VC name         value
    .    <dbl> <dbl> <dbl> <dbl> <dbl> <chr>        <dbl>
    .  1    1. 0.     0.    2.89  15.8 multivariate    1.
    .  2    1. 0.250  1.37  2.89  15.8 multivariate    1.
    .  3    1. 0.500  2.38  2.89  15.8 multivariate    1.
    .  4    1. 0.750  3.10  2.89  15.8 multivariate    1.
    .  5    1. 1.00   3.61  2.89  15.8 multivariate    1.
    .  6    1. 1.25   3.95  2.89  15.8 multivariate    1.
    .  7    1. 1.50   4.17  2.89  15.8 multivariate    1.
    .  8    1. 1.75   4.29  2.89  15.8 multivariate    1.
    .  9    1. 2.00   4.33  2.89  15.8 multivariate    1.
    . 10    1. 2.25   4.32  2.89  15.8 multivariate    1.
    . # ... with 19,290 more rows

``` r
distinct(out,ID,CL,VC)
```

    . # A tibble: 100 x 3
    .       ID    CL    VC
    .    <dbl> <dbl> <dbl>
    .  1    1.  2.89  15.8
    .  2    2.  2.54  65.0
    .  3    3.  2.12  22.2
    .  4    4.  1.87  63.1
    .  5    5.  3.28  59.3
    .  6    6.  3.18  32.4
    .  7    7.  2.85  78.8
    .  8    8.  2.17  34.3
    .  9    9.  2.98  23.4
    . 10   10.  1.50  62.2
    . # ... with 90 more rows
…
